board_b_write.vcd
$date
	2026-05-16 07:54
$end
$timescale 0ps $end
$scope dumped_signals $end
$var wire 1 ! crg_locked $end
$var wire 1 " sys_rst_debug $end
$var wire 30 # bus_adr $end
$var wire 32 $ bus_dat_w $end
$var wire 32 % bus_dat_r $end
$var wire 1 & bus_cyc $end
$var wire 1 ' bus_stb $end
$var wire 1 ( bus_we $end
$var wire 1 ) bus_ack $end
$var wire 2 * usb_otg_addr $end
$var wire 1 + usb_otg_rd_n $end
$var wire 1 , usb_otg_wr_n $end
$var wire 1 - usb_otg_cs_n $end
$var wire 1 . usb_otg_rst_n $end
$var wire 1 / usb_otg_int0 $end
$var wire 1 0 usb_otg_int1 $end
$var wire 1 1 usb_otg_dreq $end
$var wire 192 2 dbg_probe $end
$var wire 1 3 scope_clk $end
$var wire 1 4 scope_trig $end
$unscope  $end
$enddefinitions  $end
$dumpvars
bx !
bx "
bxxxxxxxxxxxxxxxxxxxxxxxxxxxxxx #
bxxxxxxxxxxxxxxxxxxxxxxxxxxxxxxxx $
bxxxxxxxxxxxxxxxxxxxxxxxxxxxxxxxx %
bx &
bx '
bx (
bx )
bxx *
bx +
bx ,
bx -
bx .
bx /
bx 0
bx 1
bxxxxxxxxxxxxxxxxxxxxxxxxxxxxxxxxxxxxxxxxxxxxxxxxxxxxxxxxxxxxxxxxxxxxxxxxxxxxxxxxxxxxxxxxxxxxxxxxxxxxxxxxxxxxxxxxxxxxxxxxxxxxxxxxxxxxxxxxxxxxxxxxxxxxxxxxxxxxxxxxxxxxxxxxxxxxxxxxxxxxxxxxxxxxxxxx 2
bx 3
bx 4
$end
#0
b1 !
b0 "
b000000000000000100000100101000 #
b00000000000000011000011010100000 $
b00000000000000000000000000000000 %
b0 &
b0 '
b1 (
b0 )
b00 *
b1 +
b1 ,
b1 -
b1 .
b1 /
b0 0
b0 1
b001000111111001000111111110111011000111001011010110101000100010100000000000000101100000000000100000000000000000011000000000001001100000000000100110000000000010011000000000001001100000000000100 2
b1 3
b0 4
#1
b0 3
#2
b1 3
#3
b0 3
#4
b1 3
#5
b0 3
#6
b1 3
#7
b0 3
#8
b1 3
#9
b0 3
#10
b1 3
#11
b0 3
#12
b1 3
#13
b0 3
#14
b1 3
#15
b0 3
#16
b1 3
#17
b0 3
#18
b1 3
#19
b0 3
#20
b1 3
#21
b0 3
#22
b1 3
#23
b0 3
#24
b1 3
#25
b0 3
#26
b1 3
#27
b0 3
#28
b1 3
#29
b0 3
#30
b1 3
#31
b0 3
#32
b1 3
b1 4
#33
b0 3
#34
b1 3
#35
b0 3
#36
b1 3
#37
b0 3
#38
b1 3
#39
b0 3
#40
b1 3
#41
b0 3
#42
b1 3
#43
b0 3
#44
b100000100000000000000000000000 #
b00000000000000000000000000000000 $
b1 3
#45
b0 3
#46
b000000000000000000000000000000 #
b1 3
#47
b0 3
#48
b100000100000000000000000000000 #
b1 3
#49
b0 3
#50
b100000100000000000000000000010 #
b00000000000000001100000010010000 $
b1 &
b1 '
b1 3
#51
b0 3
#52
b1 3
#53
b0 3
#54
b10 *
b1 3
#55
b0 3
#56
b1 3
#57
b0 3
#58
b0 -
b1 3
#59
b0 3
#60
b0 ,
b1 3
#61
b0 3
#62
b1 3
#63
b0 3
#64
b1 3
#65
b0 3
#66
b1 3
#67
b0 3
#68
b1 3
#69
b0 3
#70
b1 3
#71
b0 3
#72
b1 3
#73
b0 3
#74
b1 3
#75
b0 3
#76
b1 3
#77
b0 3
#78
b1 3
#79
b0 3
#80
b1 3
#81
b0 3
#82
b1 3
#83
b0 3
#84
b1 3
#85
b0 3
#86
b1 3
#87
b0 3
#88
b1 3
#89
b0 3
#90
b1 3
#91
b0 3
#92
b1 3
#93
b0 3
#94
b1 3
#95
b0 3
#96
b1 3
#97
b0 3
#98
b1 3
#99
b0 3
#100
b1 3
#101
b0 3
#102
b1 3
#103
b0 3
#104
b1 3
#105
b0 3
#106
b1 3
#107
b0 3
#108
b1 3
#109
b0 3
#110
b1 3
#111
b0 3
#112
b1 3
#113
b0 3
#114
b1 3
#115
b0 3
#116
b1 3
#117
b0 3
#118
b1 3
#119
b0 3
#120
b1 3
#121
b0 3
#122
b1 3
#123
b0 3
#124
b1 3
#125
b0 3
#126
b1 3
#127
b0 3
#128
b1 3
#129
b0 3
#130
b1 3
#131
b0 3
#132
b1 3
#133
b0 3
#134
b1 3
#135
b0 3
#136
b1 3
#137
b0 3
#138
b1 3
#139
b0 3
#140
b1 3
#141
b0 3
#142
b1 3
#143
b0 3
#144
b1 3
#145
b0 3
#146
b1 3
#147
b0 3
#148
b1 3
#149
b0 3
#150
b1 3
#151
b0 3
#152
b1 3
#153
b0 3
#154
b1 3
#155
b0 3
#156
b1 3
#157
b0 3
#158
b1 3
#159
b0 3
#160
b1 3
#161
b0 3
#162
b1 3
#163
b0 3
#164
b1 3
#165
b0 3
#166
b1 3
#167
b0 3
#168
b1 3
#169
b0 3
#170
b1 3
#171
b0 3
#172
b1 3
#173
b0 3
#174
b1 3
#175
b0 3
#176
b1 3
#177
b0 3
#178
b1 3
#179
b0 3
#180
b1 3
#181
b0 3
#182
b1 ,
b1 3
#183
b0 3
#184
b1 )
b1 3
#185
b0 3
#186
b100000100000000000000000000000 #
b00000000000000000000000000000000 $
b0 (
b0 )
b00 *
b1 -
b1 3
#187
b0 3
#188
b1 3
#189
b0 3
#190
b1 3
#191
b0 3
#192
b1 3
#193
b0 3
#194
b1 3
#195
b0 3
#196
b1 3
#197
b0 3
#198
b1 3
#199
b0 3
#200
b1 3
#201
b0 3
#202
b1 3
#203
b0 3
#204
b1 3
#205
b0 3
#206
b1 3
#207
b0 3
#208
b0 -
b1 3
#209
b0 3
#210
b0 +
b1 3
#211
b0 3
#212
b1 3
#213
b0 3
#214
b1 3
#215
b0 3
#216
b1 3
#217
b0 3
#218
b1 3
#219
b0 3
#220
b1 3
#221
b0 3
#222
b1 3
#223
b0 3
#224
b1 3
#225
b0 3
#226
b1 3
#227
b0 3
#228
b1 3
#229
b0 3
#230
b1 3
#231
b0 3
#232
b1 3
#233
b0 3
#234
b1 3
#235
b0 3
#236
b1 3
#237
b0 3
#238
b1 3
#239
b0 3
#240
b1 3
#241
b0 3
#242
b1 3
#243
b0 3
#244
b1 3
#245
b0 3
#246
b1 3
#247
b0 3
#248
b1 3
#249
b0 3
#250
b1 3
#251
b0 3
#252
b1 3
#253
b0 3
#254
b1 3
#255
b0 3
#256
b1 3
#257
b0 3
#258
b1 3
#259
b0 3
#260
b1 3
#261
b0 3
#262
b1 3
#263
b0 3
#264
b1 3
#265
b0 3
#266
b1 3
#267
b0 3
#268
b1 3
#269
b0 3
#270
b1 3
#271
b0 3
#272
b1 3
#273
b0 3
#274
b1 3
#275
b0 3
#276
b1 3
#277
b0 3
#278
b1 3
#279
b0 3
#280
b1 3
#281
b0 3
#282
b1 3
#283
b0 3
#284
b1 3
#285
b0 3
#286
b1 3
#287
b0 3
#288
b1 3
#289
b0 3
#290
b1 3
#291
b0 3
#292
b1 3
#293
b0 3
#294
b1 3
#295
b0 3
#296
b1 3
#297
b0 3
#298
b1 3
#299
b0 3
#300
b1 3
#301
b0 3
#302
b1 3
#303
b0 3
#304
b1 3
#305
b0 3
#306
b1 3
#307
b0 3
#308
b1 3
#309
b0 3
#310
b1 3
#311
b0 3
#312
b1 3
#313
b0 3
#314
b1 3
#315
b0 3
#316
b1 3
#317
b0 3
#318
b1 3
#319
b0 3
#320
b1 3
#321
b0 3
#322
b1 3
#323
b0 3
#324
b1 3
#325
b0 3
#326
b1 3
#327
b0 3
#328
b1 3
#329
b0 3
#330
b1 3
#331
b0 3
#332
b1 +
b1 3
#333
b0 3
#334
b1 )
b1 3
#335
b0 3
#336
b0 &
b0 '
b0 )
b1 -
b1 3
#337
b0 3
#338
b1 3
#339
b0 3
#340
b100000100000000000000000000010 #
b00000000000000001100000010001010 $
b1 &
b1 '
b1 (
b1 3
#341
b0 3
#342
b1 3
#343
b0 3
#344
b10 *
b1 3
#345
b0 3
#346
b1 3
#347
b0 3
#348
b0 -
b1 3
#349
b0 3
#350
b0 ,
b1 3
#351
b0 3
#352
b1 3
#353
b0 3
#354
b1 3
#355
b0 3
#356
b1 3
#357
b0 3
#358
b1 3
#359
b0 3
#360
b1 3
#361
b0 3
#362
b1 3
#363
b0 3
#364
b1 3
#365
b0 3
#366
b1 3
#367
b0 3
#368
b1 3
#369
b0 3
#370
b1 3
#371
b0 3
#372
b1 3
#373
b0 3
#374
b1 3
#375
b0 3
#376
b1 3
#377
b0 3
#378
b1 3
#379
b0 3
#380
b1 3
#381
b0 3
#382
b1 3
#383
b0 3
#384
b1 3
#385
b0 3
#386
b1 3
#387
b0 3
#388
b1 3
#389
b0 3
#390
b1 3
#391
b0 3
#392
b1 3
#393
b0 3
#394
b1 3
#395
b0 3
#396
b1 3
#397
b0 3
#398
b1 3
#399
b0 3
#400
b1 3
#401
b0 3
#402
b1 3
#403
b0 3
#404
b1 3
#405
b0 3
#406
b1 3
#407
b0 3
#408
b1 3
#409
b0 3
#410
b1 3
#411
b0 3
#412
b1 3
#413
b0 3
#414
b1 3
#415
b0 3
#416
b1 3
#417
b0 3
#418
b1 3
#419
b0 3
#420
b1 3
#421
b0 3
#422
b1 3
#423
b0 3
#424
b1 3
#425
b0 3
#426
b1 3
#427
b0 3
#428
b1 3
#429
b0 3
#430
b1 3
#431
b0 3
#432
b1 3
#433
b0 3
#434
b1 3
#435
b0 3
#436
b1 3
#437
b0 3
#438
b1 3
#439
b0 3
#440
b1 3
#441
b0 3
#442
b1 3
#443
b0 3
#444
b1 3
#445
b0 3
#446
b1 3
#447
b0 3
#448
b1 3
#449
b0 3
#450
b1 3
#451
b0 3
#452
b1 3
#453
b0 3
#454
b1 3
#455
b0 3
#456
b1 3
#457
b0 3
#458
b1 3
#459
b0 3
#460
b1 3
#461
b0 3
#462
b1 3
#463
b0 3
#464
b1 3
#465
b0 3
#466
b1 3
#467
b0 3
#468
b1 3
#469
b0 3
#470
b1 3
#471
b0 3
#472
b1 ,
b1 3
#473
b0 3
#474
b1 )
b1 3
#475
b0 3
#476
b100000100000000000000000000000 #
b00000000000000000000000000000000 $
b0 (
b0 )
b00 *
b1 -
b1 3
#477
b0 3
#478
b1 3
#479
b0 3
#480
b1 3
#481
b0 3
#482
b1 3
#483
b0 3
#484
b1 3
#485
b0 3
#486
b1 3
#487
b0 3
#488
b1 3
#489
b0 3
#490
b1 3
#491
b0 3
#492
b1 3
#493
b0 3
#494
b1 3
#495
b0 3
#496
b1 3
#497
b0 3
#498
b0 -
b1 3
#499
b0 3
#500
b0 +
b1 3
#501
b0 3
#502
b1 3
#503
b0 3
#504
b1 3
#505
b0 3
#506
b1 3
#507
b0 3
#508
b1 3
#509
b0 3
#510
b1 3
#511
b0 3
#512
b1 3
#513
b0 3
#514
b1 3
#515
b0 3
#516
b1 3
#517
b0 3
#518
b1 3
#519
b0 3
#520
b1 3
#521
b0 3
#522
b1 3
#523
b0 3
#524
b1 3
#525
b0 3
#526
b1 3
#527
b0 3
#528
b1 3
#529
b0 3
#530
b1 3
#531
b0 3
#532
b1 3
#533
b0 3
#534
b1 3
#535
b0 3
#536
b1 3
#537
b0 3
#538
b1 3
#539
b0 3
#540
b1 3
#541
b0 3
#542
b1 3
#543
b0 3
#544
b1 3
#545
b0 3
#546
b1 3
#547
b0 3
#548
b1 3
#549
b0 3
#550
b1 3
#551
b0 3
#552
b1 3
#553
b0 3
#554
b1 3
#555
b0 3
#556
b1 3
#557
b0 3
#558
b1 3
#559
b0 3
#560
b1 3
#561
b0 3
#562
b1 3
#563
b0 3
#564
b1 3
#565
b0 3
#566
b1 3
#567
b0 3
#568
b1 3
#569
b0 3
#570
b1 3
#571
b0 3
#572
b1 3
#573
b0 3
#574
b1 3
#575
b0 3
#576
b1 3
#577
b0 3
#578
b1 3
#579
b0 3
#580
b1 3
#581
b0 3
#582
b1 3
#583
b0 3
#584
b1 3
#585
b0 3
#586
b1 3
#587
b0 3
#588
b1 3
#589
b0 3
#590
b1 3
#591
b0 3
#592
b1 3
#593
b0 3
#594
b1 3
#595
b0 3
#596
b1 3
#597
b0 3
#598
b1 3
#599
b0 3
#600
b1 3
#601
b0 3
#602
b1 3
#603
b0 3
#604
b1 3
#605
b0 3
#606
b1 3
#607
b0 3
#608
b1 3
#609
b0 3
#610
b1 3
#611
b0 3
#612
b1 3
#613
b0 3
#614
b1 3
#615
b0 3
#616
b1 3
#617
b0 3
#618
b1 3
#619
b0 3
#620
b1 3
#621
b0 3
#622
b1 +
b1 3
#623
b0 3
#624
b1 )
b1 3
#625
b0 3
#626
b0 &
b0 '
b0 )
b1 -
b1 3
#627
b0 3
#628
b1 3
#629
b0 3
#630
b100000100000000000000000000010 #
b00000000000000001100000010110000 $
b1 &
b1 '
b1 (
b1 3
#631
b0 3
#632
b1 3
#633
b0 3
#634
b10 *
b1 3
#635
b0 3
#636
b1 3
#637
b0 3
#638
b0 -
b1 3
#639
b0 3
#640
b0 ,
b1 3
#641
b0 3
#642
b1 3
#643
b0 3
#644
b1 3
#645
b0 3
#646
b1 3
#647
b0 3
#648
b1 3
#649
b0 3
#650
b1 3
#651
b0 3
#652
b1 3
#653
b0 3
#654
b1 3
#655
b0 3
#656
b1 3
#657
b0 3
#658
b1 3
#659
b0 3
#660
b1 3
#661
b0 3
#662
b1 3
#663
b0 3
#664
b1 3
#665
b0 3
#666
b1 3
#667
b0 3
#668
b1 3
#669
b0 3
#670
b1 3
#671
b0 3
#672
b1 3
#673
b0 3
#674
b1 3
#675
b0 3
#676
b1 3
#677
b0 3
#678
b1 3
#679
b0 3
#680
b1 3
#681
b0 3
#682
b1 3
#683
b0 3
#684
b1 3
#685
b0 3
#686
b1 3
#687
b0 3
#688
b1 3
#689
b0 3
#690
b1 3
#691
b0 3
#692
b1 3
#693
b0 3
#694
b1 3
#695
b0 3
#696
b1 3
#697
b0 3
#698
b1 3
#699
b0 3
#700
b1 3
#701
b0 3
#702
b1 3
#703
b0 3
#704
b1 3
#705
b0 3
#706
b1 3
#707
b0 3
#708
b1 3
#709
b0 3
#710
b1 3
#711
b0 3
#712
b1 3
#713
b0 3
#714
b1 3
#715
b0 3
#716
b1 3
#717
b0 3
#718
b1 3
#719
b0 3
#720
b1 3
#721
b0 3
#722
b1 3
#723
b0 3
#724
b1 3
#725
b0 3
#726
b1 3
#727
b0 3
#728
b1 3
#729
b0 3
#730
b1 3
#731
b0 3
#732
b1 3
#733
b0 3
#734
b1 3
#735
b0 3
#736
b1 3
#737
b0 3
#738
b1 3
#739
b0 3
#740
b1 3
#741
b0 3
#742
b1 3
#743
b0 3
#744
b1 3
#745
b0 3
#746
b1 3
#747
b0 3
#748
b1 3
#749
b0 3
#750
b1 3
#751
b0 3
#752
b1 3
#753
b0 3
#754
b1 3
#755
b0 3
#756
b1 3
#757
b0 3
#758
b1 3
#759
b0 3
#760
b1 3
#761
b0 3
#762
b1 ,
b1 3
#763
b0 3
#764
b1 )
b1 3
#765
b0 3
#766
b100000100000000000000000000000 #
b00000000000000000000000000000000 $
b0 (
b0 )
b00 *
b1 -
b1 3
#767
b0 3
#768
b1 3
#769
b0 3
#770
b1 3
#771
b0 3
#772
b1 3
#773
b0 3
#774
b1 3
#775
b0 3
#776
b1 3
#777
b0 3
#778
b1 3
#779
b0 3
#780
b1 3
#781
b0 3
#782
b1 3
#783
b0 3
#784
b1 3
#785
b0 3
#786
b1 3
#787
b0 3
#788
b0 -
b1 3
#789
b0 3
#790
b0 +
b1 3
#791
b0 3
#792
b1 3
#793
b0 3
#794
b1 3
#795
b0 3
#796
b1 3
#797
b0 3
#798
b1 3
#799
b0 3
#800
b1 3
#801
b0 3
#802
b1 3
#803
b0 3
#804
b1 3
#805
b0 3
#806
b1 3
#807
b0 3
#808
b1 3
#809
b0 3
#810
b1 3
#811
b0 3
#812
b1 3
#813
b0 3
#814
b1 3
#815
b0 3
#816
b1 3
#817
b0 3
#818
b1 3
#819
b0 3
#820
b1 3
#821
b0 3
#822
b1 3
#823
b0 3
#824
b1 3
#825
b0 3
#826
b1 3
#827
b0 3
#828
b1 3
#829
b0 3
#830
b1 3
#831
b0 3
#832
b1 3
#833
b0 3
#834
b1 3
#835
b0 3
#836
b1 3
#837
b0 3
#838
b1 3
#839
b0 3
#840
b1 3
#841
b0 3
#842
b1 3
#843
b0 3
#844
b1 3
#845
b0 3
#846
b1 3
#847
b0 3
#848
b1 3
#849
b0 3
#850
b1 3
#851
b0 3
#852
b1 3
#853
b0 3
#854
b1 3
#855
b0 3
#856
b1 3
#857
b0 3
#858
b1 3
#859
b0 3
#860
b1 3
#861
b0 3
#862
b1 3
#863
b0 3
#864
b1 3
#865
b0 3
#866
b1 3
#867
b0 3
#868
b1 3
#869
b0 3
#870
b1 3
#871
b0 3
#872
b1 3
#873
b0 3
#874
b1 3
#875
b0 3
#876
b1 3
#877
b0 3
#878
b1 3
#879
b0 3
#880
b1 3
#881
b0 3
#882
b1 3
#883
b0 3
#884
b1 3
#885
b0 3
#886
b1 3
#887
b0 3
#888
b1 3
#889
b0 3
#890
b1 3
#891
b0 3
#892
b1 3
#893
b0 3
#894
b1 3
#895
b0 3
#896
b1 3
#897
b0 3
#898
b1 3
#899
b0 3
#900
b1 3
#901
b0 3
#902
b1 3
#903
b0 3
#904
b1 3
#905
b0 3
#906
b1 3
#907
b0 3
#908
b1 3
#909
b0 3
#910
b1 3
#911
b0 3
#912
b1 +
b1 3
#913
b0 3
#914
b1 )
b1 3
#915
b0 3
#916
b0 &
b0 '
b0 )
b1 -
b1 3
#917
b0 3
#918
b1 3
#919
b0 3
#920
b100000100000000000000000000010 #
b00000000000000001100000010101010 $
b1 &
b1 '
b1 (
b1 3
#921
b0 3
#922
b1 3
#923
b0 3
#924
b10 *
b1 3
#925
b0 3
#926
b1 3
#927
b0 3
#928
b0 -
b1 3
#929
b0 3
#930
b0 ,
b1 3
#931
b0 3
#932
b1 3
#933
b0 3
#934
b1 3
#935
b0 3
#936
b1 3
#937
b0 3
#938
b1 3
#939
b0 3
#940
b1 3
#941
b0 3
#942
b1 3
#943
b0 3
#944
b1 3
#945
b0 3
#946
b1 3
#947
b0 3
#948
b1 3
#949
b0 3
#950
b1 3
#951
b0 3
#952
b1 3
#953
b0 3
#954
b1 3
#955
b0 3
#956
b1 3
#957
b0 3
#958
b1 3
#959
b0 3
#960
b1 3
#961
b0 3
#962
b1 3
#963
b0 3
#964
b1 3
#965
b0 3
#966
b1 3
#967
b0 3
#968
b1 3
#969
b0 3
#970
b1 3
#971
b0 3
#972
b1 3
#973
b0 3
#974
b1 3
#975
b0 3
#976
b1 3
#977
b0 3
#978
b1 3
#979
b0 3
#980
b1 3
#981
b0 3
#982
b1 3
#983
b0 3
#984
b1 3
#985
b0 3
#986
b1 3
#987
b0 3
#988
b1 3
#989
b0 3
#990
b1 3
#991
b0 3
#992
b1 3
#993
b0 3
#994
b1 3
#995
b0 3
#996
b1 3
#997
b0 3
#998
b1 3
#999
b0 3
#1000
b1 3
#1001
b0 3
#1002
b1 3
#1003
b0 3
#1004
b1 3
#1005
b0 3
#1006
b1 3
#1007
b0 3
#1008
b1 3
#1009
b0 3
#1010
b1 3
#1011
b0 3
#1012
b1 3
#1013
b0 3
#1014
b1 3
#1015
b0 3
#1016
b1 3
#1017
b0 3
#1018
b1 3
#1019
b0 3
#1020
b1 3
#1021
b0 3
#1022
b1 3
#1023
b0 3
#1024
b1 3
#1025
b0 3
#1026
b1 3
#1027
b0 3
#1028
b1 3
#1029
b0 3
#1030
b1 3
#1031
b0 3
#1032
b1 3
#1033
b0 3
#1034
b1 3
#1035
b0 3
#1036
b1 3
#1037
b0 3
#1038
b1 3
#1039
b0 3
#1040
b1 3
#1041
b0 3
#1042
b1 3
#1043
b0 3
#1044
b1 3
#1045
b0 3
#1046
b1 3
#1047
b0 3
#1048
b1 3
#1049
b0 3
#1050
b1 3
#1051
b0 3
#1052
b1 ,
b1 3
#1053
b0 3
#1054
b1 )
b1 3
#1055
b0 3
#1056
b100000100000000000000000000000 #
b00000000000000000000000000000000 $
b0 (
b0 )
b00 *
b1 -
b1 3
#1057
b0 3
#1058
b1 3
#1059
b0 3
#1060
b1 3
#1061
b0 3
#1062
b1 3
#1063
b0 3
#1064
b1 3
#1065
b0 3
#1066
b1 3
#1067
b0 3
#1068
b1 3
#1069
b0 3
#1070
b1 3
#1071
b0 3
#1072
b1 3
#1073
b0 3
#1074
b1 3
#1075
b0 3
#1076
b1 3
#1077
b0 3
#1078
b0 -
b1 3
#1079
b0 3
#1080
b0 +
b1 3
#1081
b0 3
#1082
b1 3
#1083
b0 3
#1084
b1 3
#1085
b0 3
#1086
b1 3
#1087
b0 3
#1088
b1 3
#1089
b0 3
#1090
b1 3
#1091
b0 3
#1092
b1 3
#1093
b0 3
#1094
b1 3
#1095
b0 3
#1096
b1 3
#1097
b0 3
#1098
b1 3
#1099
b0 3
#1100
b1 3
#1101
b0 3
#1102
b1 3
#1103
b0 3
#1104
b1 3
#1105
b0 3
#1106
b1 3
#1107
b0 3
#1108
b1 3
#1109
b0 3
#1110
b1 3
#1111
b0 3
#1112
b1 3
#1113
b0 3
#1114
b1 3
#1115
b0 3
#1116
b1 3
#1117
b0 3
#1118
b1 3
#1119
b0 3
#1120
b1 3
#1121
b0 3
#1122
b1 3
#1123
b0 3
#1124
b1 3
#1125
b0 3
#1126
b1 3
#1127
b0 3
#1128
b1 3
#1129
b0 3
#1130
b1 3
#1131
b0 3
#1132
b1 3
#1133
b0 3
#1134
b1 3
#1135
b0 3
#1136
b1 3
#1137
b0 3
#1138
b1 3
#1139
b0 3
#1140
b1 3
#1141
b0 3
#1142
b1 3
#1143
b0 3
#1144
b1 3
#1145
b0 3
#1146
b1 3
#1147
b0 3
#1148
b1 3
#1149
b0 3
#1150
b1 3
#1151
b0 3
#1152
b1 3
#1153
b0 3
#1154
b1 3
#1155
b0 3
#1156
b1 3
#1157
b0 3
#1158
b1 3
#1159
b0 3
#1160
b1 3
#1161
b0 3
#1162
b1 3
#1163
b0 3
#1164
b1 3
#1165
b0 3
#1166
b1 3
#1167
b0 3
#1168
b1 3
#1169
b0 3
#1170
b1 3
#1171
b0 3
#1172
b1 3
#1173
b0 3
#1174
b1 3
#1175
b0 3
#1176
b1 3
#1177
b0 3
#1178
b1 3
#1179
b0 3
#1180
b1 3
#1181
b0 3
#1182
b1 3
#1183
b0 3
#1184
b1 3
#1185
b0 3
#1186
b1 3
#1187
b0 3
#1188
b1 3
#1189
b0 3
#1190
b1 3
#1191
b0 3
#1192
b1 3
#1193
b0 3
#1194
b1 3
#1195
b0 3
#1196
b1 3
#1197
b0 3
#1198
b1 3
#1199
b0 3
#1200
b1 3
#1201
b0 3
#1202
b1 +
b1 3
#1203
b0 3
#1204
b1 )
b1 3
#1205
b0 3
#1206
b0 &
b0 '
b0 )
b1 -
b1 3
#1207
b0 3
#1208
b1 3
#1209
b0 3
#1210
b000000000000000000000000000000 #
b1 3
#1211
b0 3
#1212
b00101100001011000010110000101100 $
b1 3
#1213
b0 3
#1214
b000000000000000000000000000001 #
b00000000000000110000000000000011 $
b1 (
b1 3
#1215
b0 3
#1216
b111100000000000000110000000000 #
b00000000000000000000000000000000 $
b1 3
#1217
b0 3
#1218
b00000000000000000000000000001000 $
b1 '
b1 3
#1219
b0 3
#1220
b1 3
#1221
b0 3
#1222
b1 3
#1223
b0 3
#1224
b000000000000010101000000010000 #
b00000000000011110100001001000000 $
b0 '
b1 3
#1225
b0 3
#1226
b1 3
#1227
b0 3
#1228
b1 3
#1229
b0 3
#1230
b1 3
#1231
b0 3
#1232
b1 3
#1233
b0 3
#1234
b1 3
#1235
b0 3
#1236
b1 3
#1237
b0 3
#1238
b1 3
#1239
b0 3
#1240
b1 3
#1241
b0 3
#1242
b1 3
#1243
b0 3
#1244
b1 3
#1245
b0 3
#1246
b1 3
#1247
b0 3
#1248
b1 3
#1249
b0 3
#1250
b1 3
#1251
b0 3
#1252
b1 3
#1253
b0 3
#1254
b1 3
#1255
b0 3
#1256
b1 3
#1257
b0 3
#1258
b1 3
#1259
b0 3
#1260
b1 3
#1261
b0 3
#1262
b1 3
#1263
b0 3
#1264
b1 3
#1265
b0 3
#1266
b1 3
#1267
b0 3
#1268
b1 3
#1269
b0 3
#1270
b1 3
#1271
b0 3
#1272
b1 3
#1273
b0 3
#1274
b1 3
#1275
b0 3
#1276
b1 3
#1277
b0 3
#1278
b1 3
#1279
b0 3
#1280
b1 3
#1281
b0 3
#1282
b1 3
#1283
b0 3
#1284
b1 3
#1285
b0 3
#1286
b1 3
#1287
b0 3
#1288
b000000000000000000000000000010 #
b00000000000000000000000000000000 $
b1 3
#1289
b0 3
#1290
b000000000000011110100001001000 #
b1 3
#1291
b0 3
#1292
b000000000000000000110000000000 #
b1 3
#1293
b0 3
#1294
b000000000000000000110001001110 #
b0 (
b1 3
#1295
b0 3
#1296
b000100000000000000011111100110 #
b1 (
b1 3
#1297
b0 3
#1298
b100000100000000000000000000000 #
b1 3
#1299
b0 3
#1300
b100000100000000000000000000010 #
b00000000000000001100000010010000 $
b1 &
b1 '
b1 3
#1301
b0 3
#1302
b1 3
#1303
b0 3
#1304
b10 *
b1 3
#1305
b0 3
#1306
b1 3
#1307
b0 3
#1308
b0 -
b1 3
#1309
b0 3
#1310
b0 ,
b1 3
#1311
b0 3
#1312
b1 3
#1313
b0 3
#1314
b1 3
#1315
b0 3
#1316
b1 3
#1317
b0 3
#1318
b1 3
#1319
b0 3
#1320
b1 3
#1321
b0 3
#1322
b1 3
#1323
b0 3
#1324
b1 3
#1325
b0 3
#1326
b1 3
#1327
b0 3
#1328
b1 3
#1329
b0 3
#1330
b1 3
#1331
b0 3
#1332
b1 3
#1333
b0 3
#1334
b1 3
#1335
b0 3
#1336
b1 3
#1337
b0 3
#1338
b1 3
#1339
b0 3
#1340
b1 3
#1341
b0 3
#1342
b1 3
#1343
b0 3
#1344
b1 3
#1345
b0 3
#1346
b1 3
#1347
b0 3
#1348
b1 3
#1349
b0 3
#1350
b1 3
#1351
b0 3
#1352
b1 3
#1353
b0 3
#1354
b1 3
#1355
b0 3
#1356
b1 3
#1357
b0 3
#1358
b1 3
#1359
b0 3
#1360
b1 3
#1361
b0 3
#1362
b1 3
#1363
b0 3
#1364
b1 3
#1365
b0 3
#1366
b1 3
#1367
b0 3
#1368
b1 3
#1369
b0 3
#1370
b1 3
#1371
b0 3
#1372
b1 3
#1373
b0 3
#1374
b1 3
#1375
b0 3
#1376
b1 3
#1377
b0 3
#1378
b1 3
#1379
b0 3
#1380
b1 3
#1381
b0 3
#1382
b1 3
#1383
b0 3
#1384
b1 3
#1385
b0 3
#1386
b1 3
#1387
b0 3
#1388
b1 3
#1389
b0 3
#1390
b1 3
#1391
b0 3
#1392
b1 3
#1393
b0 3
#1394
b1 3
#1395
b0 3
#1396
b1 3
#1397
b0 3
#1398
b1 3
#1399
b0 3
#1400
b1 3
#1401
b0 3
#1402
b1 3
#1403
b0 3
#1404
b1 3
#1405
b0 3
#1406
b1 3
#1407
b0 3
#1408
b1 3
#1409
b0 3
#1410
b1 3
#1411
b0 3
#1412
b1 3
#1413
b0 3
#1414
b1 3
#1415
b0 3
#1416
b1 3
#1417
b0 3
#1418
b1 3
#1419
b0 3
#1420
b1 3
#1421
b0 3
#1422
b1 3
#1423
b0 3
#1424
b1 3
#1425
b0 3
#1426
b1 3
#1427
b0 3
#1428
b1 3
#1429
b0 3
#1430
b1 3
#1431
b0 3
#1432
b1 ,
b1 3
#1433
b0 3
#1434
b1 )
b1 3
#1435
b0 3
#1436
b100000100000000000000000000000 #
b00000000000000000000000000000000 $
b0 )
b00 *
b1 -
b1 3
#1437
b0 3
#1438
b1 3
#1439
b0 3
#1440
b1 3
#1441
b0 3
#1442
b1 3
#1443
b0 3
#1444
b1 3
#1445
b0 3
#1446
b1 3
#1447
b0 3
#1448
b1 3
#1449
b0 3
#1450
b1 3
#1451
b0 3
#1452
b1 3
#1453
b0 3
#1454
b1 3
#1455
b0 3
#1456
b1 3
#1457
b0 3
#1458
b0 -
b1 3
#1459
b0 3
#1460
b0 ,
b1 3
#1461
b0 3
#1462
b1 3
#1463
b0 3
#1464
b1 3
#1465
b0 3
#1466
b1 3
#1467
b0 3
#1468
b1 3
#1469
b0 3
#1470
b1 3
#1471
b0 3
#1472
b1 3
#1473
b0 3
#1474
b1 3
#1475
b0 3
#1476
b1 3
#1477
b0 3
#1478
b1 3
#1479
b0 3
#1480
b1 3
#1481
b0 3
#1482
b1 3
#1483
b0 3
#1484
b1 3
#1485
b0 3
#1486
b1 3
#1487
b0 3
#1488
b1 3
#1489
b0 3
#1490
b1 3
#1491
b0 3
#1492
b1 3
#1493
b0 3
#1494
b1 3
#1495
b0 3
#1496
b1 3
#1497
b0 3
#1498
b1 3
#1499
b0 3
#1500
b1 3
#1501
b0 3
#1502
b1 3
#1503
b0 3
#1504
b1 3
#1505
b0 3
#1506
b1 3
#1507
b0 3
#1508
b1 3
#1509
b0 3
#1510
b1 3
#1511
b0 3
#1512
b1 3
#1513
b0 3
#1514
b1 3
#1515
b0 3
#1516
b1 3
#1517
b0 3
#1518
b1 3
#1519
b0 3
#1520
b1 3
#1521
b0 3
#1522
b1 3
#1523
b0 3
#1524
b1 3
#1525
b0 3
#1526
b1 3
#1527
b0 3
#1528
b1 3
#1529
b0 3
#1530
b1 3
#1531
b0 3
#1532
b1 3
#1533
b0 3
#1534
b1 3
#1535
b0 3
#1536
b1 3
#1537
b0 3
#1538
b1 3
#1539
b0 3
#1540
b1 3
#1541
b0 3
#1542
b1 3
#1543
b0 3
#1544
b1 3
#1545
b0 3
