tb.vcd
$date
	Thu May 14 15:47:31 2026
$end
$version
	Icarus Verilog
$end
$timescale
	1ps
$end
$scope module tb $end
$var wire 16 ! hpi_data [15:0] $end
$var wire 32 " wb_dat_r [31:0] $end
$var wire 1 # wb_ack $end
$var wire 1 $ hpi_wr_n $end
$var wire 1 % hpi_rst_n $end
$var wire 1 & hpi_rd_n $end
$var wire 1 ' hpi_cs_n $end
$var wire 2 ( hpi_addr [1:0] $end
$var reg 1 ) clk $end
$var reg 1 * rst $end
$var reg 30 + wb_adr [29:0] $end
$var reg 1 , wb_cyc $end
$var reg 32 - wb_dat_w [31:0] $end
$var reg 1 . wb_stb $end
$var reg 1 / wb_we $end
$scope module dut $end
$var wire 1 ) clk $end
$var wire 192 0 dbg_probe [191:0] $end
$var wire 1 1 debug_access $end
$var wire 1 2 diag_capture_match $end
$var wire 2 3 diag_in [1:0] $end
$var wire 4 4 diag_source [3:0] $end
$var wire 1 5 hpi_access $end
$var wire 16 6 hpi_data [15:0] $end
$var wire 1 7 hpi_dreq $end
$var wire 1 8 hpi_int0 $end
$var wire 1 9 hpi_int1 $end
$var wire 1 : hpi_strobe $end
$var wire 1 * rst $end
$var wire 1 ; wb_access $end
$var wire 30 < wb_adr [29:0] $end
$var wire 1 , wb_cyc $end
$var wire 32 = wb_dat_w [31:0] $end
$var wire 1 . wb_stb $end
$var wire 1 / wb_we $end
$var wire 6 > sample_threshold [5:0] $end
$var wire 14 ? local_adr [13:0] $end
$var wire 1 $ hpi_wr_n $end
$var wire 1 % hpi_rst_n $end
$var wire 1 & hpi_rd_n $end
$var wire 1 ' hpi_cs_n $end
$var wire 2 @ hpi_addr [1:0] $end
$var wire 6 A effective_turnaround_cycles [5:0] $end
$var wire 6 B effective_access_cycles [5:0] $end
$var wire 192 C diag_probe_mux [191:0] $end
$var wire 192 D diag_probe_live [191:0] $end
$var wire 3 E diag_capture_mode [2:0] $end
$var wire 6 F diag_capture_count [5:0] $end
$var wire 2 G debug_index [1:0] $end
$var wire 1 H cy_o_int $end
$var wire 32 I cy_o_data [31:0] $end
$var wire 1 J cy_i_rst_n $end
$var wire 2 K bus_hpi_addr [1:0] $end
$var reg 1 L active $end
$var reg 6 M cfg_access_cycles [5:0] $end
$var reg 1 N cfg_force_rst_en $end
$var reg 1 O cfg_hpi_rst_n $end
$var reg 6 P cfg_sample_offset [5:0] $end
$var reg 6 Q cfg_turnaround_cycles [5:0] $end
$var reg 6 R count [5:0] $end
$var reg 1 S debug_latched $end
$var reg 1 T diag_captured $end
$var reg 192 U diag_probe_reg [191:0] $end
$var reg 32 V last_ctrl [31:0] $end
$var reg 16 W last_cy_data [15:0] $end
$var reg 16 X last_sample_data [15:0] $end
$var reg 30 Y latched_adr [29:0] $end
$var reg 1 Z latched_we $end
$var reg 16 [ read_data [15:0] $end
$var reg 16 \ sample_data [15:0] $end
$var reg 2 ] state [1:0] $end
$var reg 1 # wb_ack $end
$var reg 32 ^ wb_dat_r [31:0] $end
$var reg 16 _ write_data [15:0] $end
$scope module cy_if $end
$var wire 16 ` HPI_DATA [15:0] $end
$var wire 1 8 HPI_INT $end
$var wire 1 % HPI_RST_N $end
$var wire 2 a iADDR [1:0] $end
$var wire 1 ) iCLK $end
$var wire 1 b iCS_N $end
$var wire 32 c iDATA [31:0] $end
$var wire 1 d iRD_N $end
$var wire 1 J iRST_N $end
$var wire 1 e iWR_N $end
$var reg 2 f HPI_ADDR [1:0] $end
$var reg 1 ' HPI_CS_N $end
$var reg 1 & HPI_RD_N $end
$var reg 1 $ HPI_WR_N $end
$var reg 32 g oDATA [31:0] $end
$var reg 1 H oINT $end
$var reg 16 h tmp_data [15:0] $end
$upscope $end
$scope module hpi_probe $end
$var wire 192 i probe [191:0] $end
$var wire 4 j source [3:0] $end
$upscope $end
$upscope $end
$upscope $end
$enddefinitions $end
#0
$dumpvars
b0 j
b1000111111000100111111111011010000000000100000001110000000000x000000000000000000000000000000000000000000000000000000000000000000000000000000000000000000000000010010001101000000000000000000 i
b0 h
b0 g
b0 f
1e
1d
b0 c
1b
b0 a
b1001000110100 `
b0 _
b0 ^
b0 ]
b0 \
b0 [
0Z
b0 Y
b0 X
b0 W
b0 V
b0 U
0T
0S
b0 R
b1000 Q
b100 P
0O
1N
b111111 M
0L
b0 K
0J
b0 I
0H
b0 G
b111011 F
b0 E
b1000111111000100111111111011010000000000100000001110000000000x000000000000000000000000000000000000000000000000000000000000000000000000000000000000000000000000010010001101000000000000000000 D
b1000111111000100111111111011010000000000100000001110000000000x000000000000000000000000000000000000000000000000000000000000000000000000000000000000000000000000010010001101000000000000000000 C
b111111 B
b1000 A
b0 @
b0 ?
b111011 >
b0 =
b0 <
0;
0:
09
08
07
b1001000110100 6
05
b0 4
b0 3
12
01
b1000111111000100111111111011010000000000100000001110000000000x000000000000000000000000000000000000000000000000000000000000000000000000000000000000000000000000010010001101000000000000000000 0
0/
0.
b0 -
0,
b0 +
1*
0)
b0 (
1'
1&
0%
1$
x#
b0 "
b1001000110100 !
$end
#5000
b10001111110001001111111110110100000000001000000011100000000000000000000000000000000000000000000000000000000000010010001101000000000000000000000000000000000000010010001101000000000000000000 0
b10001111110001001111111110110100000000001000000011100000000000000000000000000000000000000000000000000000000000010010001101000000000000000000000000000000000000010010001101000000000000000000 C
b10001111110001001111111110110100000000001000000011100000000000000000000000000000000000000000000000000000000000010010001101000000000000000000000000000000000000010010001101000000000000000000 i
b1001000110100 \
b10001111110001001111111110110100000000001000000011100000000000000000000000000000000000000000000000000000000000010010001101000000000000000000000000000000000000010010001101000000000000000000 D
0#
1)
#10000
0)
#15000
1)
#20000
b10001111110001001111111110110100000000000000000011100000000000000000000000000000000000000000000000000000000000010010001101000000000000000000000000000000000000010010001101000000000000000000 0
b10001111110001001111111110110100000000000000000011100000000000000000000000000000000000000000000000000000000000010010001101000000000000000000000000000000000000010010001101000000000000000000 C
b10001111110001001111111110110100000000000000000011100000000000000000000000000000000000000000000000000000000000010010001101000000000000000000000000000000000000010010001101000000000000000000 i
0)
b10001111110001001111111110110100000000000000000011100000000000000000000000000000000000000000000000000000000000010010001101000000000000000000000000000000000000010010001101000000000000000000 D
0*
#25000
1)
#30000
0)
#35000
1)
#40000
b10001111110001001111111110110100000000000010000011100000000000000000000000000000000000000000000000000000000000010010001101000000000000000000000000000000000000010010001101000000000000000000 0
b10001111110001001111111110110100000000000010000011100000000000000000000000000000000000000000000000000000000000010010001101000000000000000000000000000000000000010010001101000000000000000000 C
b10001111110001001111111110110100000000000010000011100000000000000000000000000000000000000000000000000000000000010010001101000000000000000000000000000000000000010010001101000000000000000000 i
b10001111110001001111111110110100000000000010000011100000000000000000000000000000000000000000000000000000000000010010001101000000000000000000000000000000000000010010001101000000000000000000 D
1;
0)
1.
1,
#45000
0b
b10001111110001001111111110110100000000010010100011100010000000000000000000000000000000000000000000000000000000010010001101000000000000000000000000000000000000010010001101000000000000000000 0
b10001111110001001111111110110100000000010010100011100010000000000000000000000000000000000000000000000000000000010010001101000000000000000000000000000000000000010010001101000000000000000000 C
b10001111110001001111111110110100000000010010100011100010000000000000000000000000000000000000000000000000000000010010001101000000000000000000000000000000000000010010001101000000000000000000 i
15
b1 ]
b10001111110001001111111110110100000000010010100011100010000000000000000000000000000000000000000000000000000000010010001101000000000000000000000000000000000000010010001101000000000000000000 D
1L
1)
#50000
0)
#55000
0d
1:
b10001111110001001111111110110100000000010010100011100010000010000000000000000000000000000000000000000000000000010010001101000001001000110100000000000000000000010010001101000000000000000000 0
b10001111110001001111111110110100000000010010100011100010000010000000000000000000000000000000000000000000000000010010001101000001001000110100000000000000000000010010001101000000000000000000 C
b10001111110001001111111110110100000000010010100011100010000010000000000000000000000000000000000000000000000000010010001101000001001000110100000000000000000000010010001101000000000000000000 i
b1 R
b10001111110001001111111110110100000000010010100011100010000010000000000000000000000000000000000000000000000000010010001101000001001000110100000000000000000000010010001101000000000000000000 D
b1001000110100 X
b1000100000011100000000000 V
1)
#60000
0)
#65000
b10001111110001001111111110110100000000010010100011100010000100000000000000000000000000000000000000000000000000010010001101000001001000110100000000000000000000010010001101000000000000000000 0
b10001111110001001111111110110100000000010010100011100010000100000000000000000000000000000000000000000000000000010010001101000001001000110100000000000000000000010010001101000000000000000000 C
b10001111110001001111111110110100000000010010100011100010000100000000000000000000000000000000000000000000000000010010001101000001001000110100000000000000000000010010001101000000000000000000 i
b10001111110001001111111110110100000000010010100011100010000100000000000000000000000000000000000000000000000000010010001101000001001000110100000000000000000000010010001101000000000000000000 D
b10 R
b1000100000111100000000000 V
1)
#70000
0)
#75000
b10001111110001001111111110110100000000010010100011100010000110000000000000000000000000000000000000000000000000010010001101000001001000110100000000000000000000010010001101000000000000000000 0
b10001111110001001111111110110100000000010010100011100010000110000000000000000000000000000000000000000000000000010010001101000001001000110100000000000000000000010010001101000000000000000000 C
b10001111110001001111111110110100000000010010100011100010000110000000000000000000000000000000000000000000000000010010001101000001001000110100000000000000000000010010001101000000000000000000 i
b10001111110001001111111110110100000000010010100011100010000110000000000000000000000000000000000000000000000000010010001101000001001000110100000000000000000000010010001101000000000000000000 D
b11 R
b1000100001011100000000000 V
1)
#80000
0)
#85000
b10001111110001001111111110110100000000010010100011100010001000000000000000000000000000000000000000000000000000010010001101000001001000110100000000000000000000010010001101000000000000000000 0
b10001111110001001111111110110100000000010010100011100010001000000000000000000000000000000000000000000000000000010010001101000001001000110100000000000000000000010010001101000000000000000000 C
b10001111110001001111111110110100000000010010100011100010001000000000000000000000000000000000000000000000000000010010001101000001001000110100000000000000000000010010001101000000000000000000 i
b10001111110001001111111110110100000000010010100011100010001000000000000000000000000000000000000000000000000000010010001101000001001000110100000000000000000000010010001101000000000000000000 D
b100 R
b1000100001111100000000000 V
1)
#90000
0)
#95000
b10001111110001001111111110110100000000010010100011100010001010000000000000000000000000000000000000000000000000010010001101000001001000110100000000000000000000010010001101000000000000000000 0
b10001111110001001111111110110100000000010010100011100010001010000000000000000000000000000000000000000000000000010010001101000001001000110100000000000000000000010010001101000000000000000000 C
b10001111110001001111111110110100000000010010100011100010001010000000000000000000000000000000000000000000000000010010001101000001001000110100000000000000000000010010001101000000000000000000 i
b10001111110001001111111110110100000000010010100011100010001010000000000000000000000000000000000000000000000000010010001101000001001000110100000000000000000000010010001101000000000000000000 D
b101 R
b1000100010011100000000000 V
1)
#100000
0)
#105000
b10001111110001001111111110110100000000010010100011100010001100000000000000000000000000000000000000000000000000010010001101000001001000110100000000000000000000010010001101000000000000000000 0
b10001111110001001111111110110100000000010010100011100010001100000000000000000000000000000000000000000000000000010010001101000001001000110100000000000000000000010010001101000000000000000000 C
b10001111110001001111111110110100000000010010100011100010001100000000000000000000000000000000000000000000000000010010001101000001001000110100000000000000000000010010001101000000000000000000 i
b10001111110001001111111110110100000000010010100011100010001100000000000000000000000000000000000000000000000000010010001101000001001000110100000000000000000000010010001101000000000000000000 D
b110 R
b1000100010111100000000000 V
1)
#110000
0)
#115000
b10001111110001001111111110110100000000010010100011100010001110000000000000000000000000000000000000000000000000010010001101000001001000110100000000000000000000010010001101000000000000000000 0
b10001111110001001111111110110100000000010010100011100010001110000000000000000000000000000000000000000000000000010010001101000001001000110100000000000000000000010010001101000000000000000000 C
b10001111110001001111111110110100000000010010100011100010001110000000000000000000000000000000000000000000000000010010001101000001001000110100000000000000000000010010001101000000000000000000 i
b10001111110001001111111110110100000000010010100011100010001110000000000000000000000000000000000000000000000000010010001101000001001000110100000000000000000000010010001101000000000000000000 D
b111 R
b1000100011011100000000000 V
1)
#120000
0)
#125000
b10001111110001001111111110110100000000010010100011100010010000000000000000000000000000000000000000000000000000010010001101000001001000110100000000000000000000010010001101000000000000000000 0
b10001111110001001111111110110100000000010010100011100010010000000000000000000000000000000000000000000000000000010010001101000001001000110100000000000000000000010010001101000000000000000000 C
b10001111110001001111111110110100000000010010100011100010010000000000000000000000000000000000000000000000000000010010001101000001001000110100000000000000000000010010001101000000000000000000 i
b10001111110001001111111110110100000000010010100011100010010000000000000000000000000000000000000000000000000000010010001101000001001000110100000000000000000000010010001101000000000000000000 D
b1000 R
b1000100011111100000000000 V
1)
#130000
0)
#135000
b10001111110001001111111110110100000000010010100011100010010010000000000000000000000000000000000000000000000000010010001101000001001000110100000000000000000000010010001101000000000000000000 0
b10001111110001001111111110110100000000010010100011100010010010000000000000000000000000000000000000000000000000010010001101000001001000110100000000000000000000010010001101000000000000000000 C
b10001111110001001111111110110100000000010010100011100010010010000000000000000000000000000000000000000000000000010010001101000001001000110100000000000000000000010010001101000000000000000000 i
b10001111110001001111111110110100000000010010100011100010010010000000000000000000000000000000000000000000000000010010001101000001001000110100000000000000000000010010001101000000000000000000 D
b1001 R
b1000100100011100000000000 V
1)
#140000
0)
#145000
b10001111110001001111111110110100000000010010100011100010010100000000000000000000000000000000000000000000000000010010001101000001001000110100000000000000000000010010001101000000000000000000 0
b10001111110001001111111110110100000000010010100011100010010100000000000000000000000000000000000000000000000000010010001101000001001000110100000000000000000000010010001101000000000000000000 C
b10001111110001001111111110110100000000010010100011100010010100000000000000000000000000000000000000000000000000010010001101000001001000110100000000000000000000010010001101000000000000000000 i
b10001111110001001111111110110100000000010010100011100010010100000000000000000000000000000000000000000000000000010010001101000001001000110100000000000000000000010010001101000000000000000000 D
b1010 R
b1000100100111100000000000 V
1)
#150000
0)
#155000
b10001111110001001111111110110100000000010010100011100010010110000000000000000000000000000000000000000000000000010010001101000001001000110100000000000000000000010010001101000000000000000000 0
b10001111110001001111111110110100000000010010100011100010010110000000000000000000000000000000000000000000000000010010001101000001001000110100000000000000000000010010001101000000000000000000 C
b10001111110001001111111110110100000000010010100011100010010110000000000000000000000000000000000000000000000000010010001101000001001000110100000000000000000000010010001101000000000000000000 i
b10001111110001001111111110110100000000010010100011100010010110000000000000000000000000000000000000000000000000010010001101000001001000110100000000000000000000010010001101000000000000000000 D
b1011 R
b1000100101011100000000000 V
1)
#160000
0)
#165000
b10001111110001001111111110110100000000010010100011100010011000000000000000000000000000000000000000000000000000010010001101000001001000110100000000000000000000010010001101000000000000000000 0
b10001111110001001111111110110100000000010010100011100010011000000000000000000000000000000000000000000000000000010010001101000001001000110100000000000000000000010010001101000000000000000000 C
b10001111110001001111111110110100000000010010100011100010011000000000000000000000000000000000000000000000000000010010001101000001001000110100000000000000000000010010001101000000000000000000 i
b10001111110001001111111110110100000000010010100011100010011000000000000000000000000000000000000000000000000000010010001101000001001000110100000000000000000000010010001101000000000000000000 D
b1100 R
b1000100101111100000000000 V
1)
#170000
0)
#175000
b10001111110001001111111110110100000000010010100011100010011010000000000000000000000000000000000000000000000000010010001101000001001000110100000000000000000000010010001101000000000000000000 0
b10001111110001001111111110110100000000010010100011100010011010000000000000000000000000000000000000000000000000010010001101000001001000110100000000000000000000010010001101000000000000000000 C
b10001111110001001111111110110100000000010010100011100010011010000000000000000000000000000000000000000000000000010010001101000001001000110100000000000000000000010010001101000000000000000000 i
b10001111110001001111111110110100000000010010100011100010011010000000000000000000000000000000000000000000000000010010001101000001001000110100000000000000000000010010001101000000000000000000 D
b1101 R
b1000100110011100000000000 V
1)
#180000
0)
#185000
b10001111110001001111111110110100000000010010100011100010011100000000000000000000000000000000000000000000000000010010001101000001001000110100000000000000000000010010001101000000000000000000 0
b10001111110001001111111110110100000000010010100011100010011100000000000000000000000000000000000000000000000000010010001101000001001000110100000000000000000000010010001101000000000000000000 C
b10001111110001001111111110110100000000010010100011100010011100000000000000000000000000000000000000000000000000010010001101000001001000110100000000000000000000010010001101000000000000000000 i
b10001111110001001111111110110100000000010010100011100010011100000000000000000000000000000000000000000000000000010010001101000001001000110100000000000000000000010010001101000000000000000000 D
b1110 R
b1000100110111100000000000 V
1)
#190000
0)
#195000
b10001111110001001111111110110100000000010010100011100010011110000000000000000000000000000000000000000000000000010010001101000001001000110100000000000000000000010010001101000000000000000000 0
b10001111110001001111111110110100000000010010100011100010011110000000000000000000000000000000000000000000000000010010001101000001001000110100000000000000000000010010001101000000000000000000 C
b10001111110001001111111110110100000000010010100011100010011110000000000000000000000000000000000000000000000000010010001101000001001000110100000000000000000000010010001101000000000000000000 i
b10001111110001001111111110110100000000010010100011100010011110000000000000000000000000000000000000000000000000010010001101000001001000110100000000000000000000010010001101000000000000000000 D
b1111 R
b1000100111011100000000000 V
1)
#200000
0)
#205000
b10001111110001001111111110110100000000010010100011100010100000000000000000000000000000000000000000000000000000010010001101000001001000110100000000000000000000010010001101000000000000000000 0
b10001111110001001111111110110100000000010010100011100010100000000000000000000000000000000000000000000000000000010010001101000001001000110100000000000000000000010010001101000000000000000000 C
b10001111110001001111111110110100000000010010100011100010100000000000000000000000000000000000000000000000000000010010001101000001001000110100000000000000000000010010001101000000000000000000 i
b10001111110001001111111110110100000000010010100011100010100000000000000000000000000000000000000000000000000000010010001101000001001000110100000000000000000000010010001101000000000000000000 D
b10000 R
b1000100111111100000000000 V
1)
#210000
0)
#215000
b10001111110001001111111110110100000000010010100011100010100010000000000000000000000000000000000000000000000000010010001101000001001000110100000000000000000000010010001101000000000000000000 0
b10001111110001001111111110110100000000010010100011100010100010000000000000000000000000000000000000000000000000010010001101000001001000110100000000000000000000010010001101000000000000000000 C
b10001111110001001111111110110100000000010010100011100010100010000000000000000000000000000000000000000000000000010010001101000001001000110100000000000000000000010010001101000000000000000000 i
b10001111110001001111111110110100000000010010100011100010100010000000000000000000000000000000000000000000000000010010001101000001001000110100000000000000000000010010001101000000000000000000 D
b10001 R
b1000101000011100000000000 V
1)
#220000
0)
#225000
b10001111110001001111111110110100000000010010100011100010100100000000000000000000000000000000000000000000000000010010001101000001001000110100000000000000000000010010001101000000000000000000 0
b10001111110001001111111110110100000000010010100011100010100100000000000000000000000000000000000000000000000000010010001101000001001000110100000000000000000000010010001101000000000000000000 C
b10001111110001001111111110110100000000010010100011100010100100000000000000000000000000000000000000000000000000010010001101000001001000110100000000000000000000010010001101000000000000000000 i
b10001111110001001111111110110100000000010010100011100010100100000000000000000000000000000000000000000000000000010010001101000001001000110100000000000000000000010010001101000000000000000000 D
b10010 R
b1000101000111100000000000 V
1)
#230000
0)
#235000
b10001111110001001111111110110100000000010010100011100010100110000000000000000000000000000000000000000000000000010010001101000001001000110100000000000000000000010010001101000000000000000000 0
b10001111110001001111111110110100000000010010100011100010100110000000000000000000000000000000000000000000000000010010001101000001001000110100000000000000000000010010001101000000000000000000 C
b10001111110001001111111110110100000000010010100011100010100110000000000000000000000000000000000000000000000000010010001101000001001000110100000000000000000000010010001101000000000000000000 i
b10001111110001001111111110110100000000010010100011100010100110000000000000000000000000000000000000000000000000010010001101000001001000110100000000000000000000010010001101000000000000000000 D
b10011 R
b1000101001011100000000000 V
1)
#240000
0)
#245000
b10001111110001001111111110110100000000010010100011100010101000000000000000000000000000000000000000000000000000010010001101000001001000110100000000000000000000010010001101000000000000000000 0
b10001111110001001111111110110100000000010010100011100010101000000000000000000000000000000000000000000000000000010010001101000001001000110100000000000000000000010010001101000000000000000000 C
b10001111110001001111111110110100000000010010100011100010101000000000000000000000000000000000000000000000000000010010001101000001001000110100000000000000000000010010001101000000000000000000 i
b10001111110001001111111110110100000000010010100011100010101000000000000000000000000000000000000000000000000000010010001101000001001000110100000000000000000000010010001101000000000000000000 D
b10100 R
b1000101001111100000000000 V
1)
#250000
0)
#255000
b10001111110001001111111110110100000000010010100011100010101010000000000000000000000000000000000000000000000000010010001101000001001000110100000000000000000000010010001101000000000000000000 0
b10001111110001001111111110110100000000010010100011100010101010000000000000000000000000000000000000000000000000010010001101000001001000110100000000000000000000010010001101000000000000000000 C
b10001111110001001111111110110100000000010010100011100010101010000000000000000000000000000000000000000000000000010010001101000001001000110100000000000000000000010010001101000000000000000000 i
b10001111110001001111111110110100000000010010100011100010101010000000000000000000000000000000000000000000000000010010001101000001001000110100000000000000000000010010001101000000000000000000 D
b10101 R
b1000101010011100000000000 V
1)
#260000
0)
#265000
b10001111110001001111111110110100000000010010100011100010101100000000000000000000000000000000000000000000000000010010001101000001001000110100000000000000000000010010001101000000000000000000 0
b10001111110001001111111110110100000000010010100011100010101100000000000000000000000000000000000000000000000000010010001101000001001000110100000000000000000000010010001101000000000000000000 C
b10001111110001001111111110110100000000010010100011100010101100000000000000000000000000000000000000000000000000010010001101000001001000110100000000000000000000010010001101000000000000000000 i
b10001111110001001111111110110100000000010010100011100010101100000000000000000000000000000000000000000000000000010010001101000001001000110100000000000000000000010010001101000000000000000000 D
b10110 R
b1000101010111100000000000 V
1)
#270000
0)
#275000
b10001111110001001111111110110100000000010010100011100010101110000000000000000000000000000000000000000000000000010010001101000001001000110100000000000000000000010010001101000000000000000000 0
b10001111110001001111111110110100000000010010100011100010101110000000000000000000000000000000000000000000000000010010001101000001001000110100000000000000000000010010001101000000000000000000 C
b10001111110001001111111110110100000000010010100011100010101110000000000000000000000000000000000000000000000000010010001101000001001000110100000000000000000000010010001101000000000000000000 i
b10001111110001001111111110110100000000010010100011100010101110000000000000000000000000000000000000000000000000010010001101000001001000110100000000000000000000010010001101000000000000000000 D
b10111 R
b1000101011011100000000000 V
1)
#280000
0)
#285000
b10001111110001001111111110110100000000010010100011100010110000000000000000000000000000000000000000000000000000010010001101000001001000110100000000000000000000010010001101000000000000000000 0
b10001111110001001111111110110100000000010010100011100010110000000000000000000000000000000000000000000000000000010010001101000001001000110100000000000000000000010010001101000000000000000000 C
b10001111110001001111111110110100000000010010100011100010110000000000000000000000000000000000000000000000000000010010001101000001001000110100000000000000000000010010001101000000000000000000 i
b10001111110001001111111110110100000000010010100011100010110000000000000000000000000000000000000000000000000000010010001101000001001000110100000000000000000000010010001101000000000000000000 D
b11000 R
b1000101011111100000000000 V
1)
#290000
0)
#295000
b10001111110001001111111110110100000000010010100011100010110010000000000000000000000000000000000000000000000000010010001101000001001000110100000000000000000000010010001101000000000000000000 0
b10001111110001001111111110110100000000010010100011100010110010000000000000000000000000000000000000000000000000010010001101000001001000110100000000000000000000010010001101000000000000000000 C
b10001111110001001111111110110100000000010010100011100010110010000000000000000000000000000000000000000000000000010010001101000001001000110100000000000000000000010010001101000000000000000000 i
b10001111110001001111111110110100000000010010100011100010110010000000000000000000000000000000000000000000000000010010001101000001001000110100000000000000000000010010001101000000000000000000 D
b11001 R
b1000101100011100000000000 V
1)
#300000
0)
#305000
b10001111110001001111111110110100000000010010100011100010110100000000000000000000000000000000000000000000000000010010001101000001001000110100000000000000000000010010001101000000000000000000 0
b10001111110001001111111110110100000000010010100011100010110100000000000000000000000000000000000000000000000000010010001101000001001000110100000000000000000000010010001101000000000000000000 C
b10001111110001001111111110110100000000010010100011100010110100000000000000000000000000000000000000000000000000010010001101000001001000110100000000000000000000010010001101000000000000000000 i
b10001111110001001111111110110100000000010010100011100010110100000000000000000000000000000000000000000000000000010010001101000001001000110100000000000000000000010010001101000000000000000000 D
b11010 R
b1000101100111100000000000 V
1)
#310000
0)
#315000
b10001111110001001111111110110100000000010010100011100010110110000000000000000000000000000000000000000000000000010010001101000001001000110100000000000000000000010010001101000000000000000000 0
b10001111110001001111111110110100000000010010100011100010110110000000000000000000000000000000000000000000000000010010001101000001001000110100000000000000000000010010001101000000000000000000 C
b10001111110001001111111110110100000000010010100011100010110110000000000000000000000000000000000000000000000000010010001101000001001000110100000000000000000000010010001101000000000000000000 i
b10001111110001001111111110110100000000010010100011100010110110000000000000000000000000000000000000000000000000010010001101000001001000110100000000000000000000010010001101000000000000000000 D
b11011 R
b1000101101011100000000000 V
1)
#320000
0)
#325000
b10001111110001001111111110110100000000010010100011100010111000000000000000000000000000000000000000000000000000010010001101000001001000110100000000000000000000010010001101000000000000000000 0
b10001111110001001111111110110100000000010010100011100010111000000000000000000000000000000000000000000000000000010010001101000001001000110100000000000000000000010010001101000000000000000000 C
b10001111110001001111111110110100000000010010100011100010111000000000000000000000000000000000000000000000000000010010001101000001001000110100000000000000000000010010001101000000000000000000 i
b10001111110001001111111110110100000000010010100011100010111000000000000000000000000000000000000000000000000000010010001101000001001000110100000000000000000000010010001101000000000000000000 D
b11100 R
b1000101101111100000000000 V
1)
#330000
0)
#335000
b10001111110001001111111110110100000000010010100011100010111010000000000000000000000000000000000000000000000000010010001101000001001000110100000000000000000000010010001101000000000000000000 0
b10001111110001001111111110110100000000010010100011100010111010000000000000000000000000000000000000000000000000010010001101000001001000110100000000000000000000010010001101000000000000000000 C
b10001111110001001111111110110100000000010010100011100010111010000000000000000000000000000000000000000000000000010010001101000001001000110100000000000000000000010010001101000000000000000000 i
b10001111110001001111111110110100000000010010100011100010111010000000000000000000000000000000000000000000000000010010001101000001001000110100000000000000000000010010001101000000000000000000 D
b11101 R
b1000101110011100000000000 V
1)
#340000
0)
#345000
b10001111110001001111111110110100000000010010100011100010111100000000000000000000000000000000000000000000000000010010001101000001001000110100000000000000000000010010001101000000000000000000 0
b10001111110001001111111110110100000000010010100011100010111100000000000000000000000000000000000000000000000000010010001101000001001000110100000000000000000000010010001101000000000000000000 C
b10001111110001001111111110110100000000010010100011100010111100000000000000000000000000000000000000000000000000010010001101000001001000110100000000000000000000010010001101000000000000000000 i
b10001111110001001111111110110100000000010010100011100010111100000000000000000000000000000000000000000000000000010010001101000001001000110100000000000000000000010010001101000000000000000000 D
b11110 R
b1000101110111100000000000 V
1)
#350000
0)
#355000
b10001111110001001111111110110100000000010010100011100010111110000000000000000000000000000000000000000000000000010010001101000001001000110100000000000000000000010010001101000000000000000000 0
b10001111110001001111111110110100000000010010100011100010111110000000000000000000000000000000000000000000000000010010001101000001001000110100000000000000000000010010001101000000000000000000 C
b10001111110001001111111110110100000000010010100011100010111110000000000000000000000000000000000000000000000000010010001101000001001000110100000000000000000000010010001101000000000000000000 i
b10001111110001001111111110110100000000010010100011100010111110000000000000000000000000000000000000000000000000010010001101000001001000110100000000000000000000010010001101000000000000000000 D
b11111 R
b1000101111011100000000000 V
1)
#360000
0)
#365000
b10001111110001001111111110110100000000010010100011100011000000000000000000000000000000000000000000000000000000010010001101000001001000110100000000000000000000010010001101000000000000000000 0
b10001111110001001111111110110100000000010010100011100011000000000000000000000000000000000000000000000000000000010010001101000001001000110100000000000000000000010010001101000000000000000000 C
b10001111110001001111111110110100000000010010100011100011000000000000000000000000000000000000000000000000000000010010001101000001001000110100000000000000000000010010001101000000000000000000 i
b10001111110001001111111110110100000000010010100011100011000000000000000000000000000000000000000000000000000000010010001101000001001000110100000000000000000000010010001101000000000000000000 D
b100000 R
b1000101111111100000000000 V
1)
#370000
0)
#375000
b10001111110001001111111110110100000000010010100011100011000010000000000000000000000000000000000000000000000000010010001101000001001000110100000000000000000000010010001101000000000000000000 0
b10001111110001001111111110110100000000010010100011100011000010000000000000000000000000000000000000000000000000010010001101000001001000110100000000000000000000010010001101000000000000000000 C
b10001111110001001111111110110100000000010010100011100011000010000000000000000000000000000000000000000000000000010010001101000001001000110100000000000000000000010010001101000000000000000000 i
b10001111110001001111111110110100000000010010100011100011000010000000000000000000000000000000000000000000000000010010001101000001001000110100000000000000000000010010001101000000000000000000 D
b100001 R
b1000110000011100000000000 V
1)
#380000
0)
#385000
b10001111110001001111111110110100000000010010100011100011000100000000000000000000000000000000000000000000000000010010001101000001001000110100000000000000000000010010001101000000000000000000 0
b10001111110001001111111110110100000000010010100011100011000100000000000000000000000000000000000000000000000000010010001101000001001000110100000000000000000000010010001101000000000000000000 C
b10001111110001001111111110110100000000010010100011100011000100000000000000000000000000000000000000000000000000010010001101000001001000110100000000000000000000010010001101000000000000000000 i
b10001111110001001111111110110100000000010010100011100011000100000000000000000000000000000000000000000000000000010010001101000001001000110100000000000000000000010010001101000000000000000000 D
b100010 R
b1000110000111100000000000 V
1)
#390000
0)
#395000
b10001111110001001111111110110100000000010010100011100011000110000000000000000000000000000000000000000000000000010010001101000001001000110100000000000000000000010010001101000000000000000000 0
b10001111110001001111111110110100000000010010100011100011000110000000000000000000000000000000000000000000000000010010001101000001001000110100000000000000000000010010001101000000000000000000 C
b10001111110001001111111110110100000000010010100011100011000110000000000000000000000000000000000000000000000000010010001101000001001000110100000000000000000000010010001101000000000000000000 i
b10001111110001001111111110110100000000010010100011100011000110000000000000000000000000000000000000000000000000010010001101000001001000110100000000000000000000010010001101000000000000000000 D
b100011 R
b1000110001011100000000000 V
1)
#400000
0)
#405000
b10001111110001001111111110110100000000010010100011100011001000000000000000000000000000000000000000000000000000010010001101000001001000110100000000000000000000010010001101000000000000000000 0
b10001111110001001111111110110100000000010010100011100011001000000000000000000000000000000000000000000000000000010010001101000001001000110100000000000000000000010010001101000000000000000000 C
b10001111110001001111111110110100000000010010100011100011001000000000000000000000000000000000000000000000000000010010001101000001001000110100000000000000000000010010001101000000000000000000 i
b10001111110001001111111110110100000000010010100011100011001000000000000000000000000000000000000000000000000000010010001101000001001000110100000000000000000000010010001101000000000000000000 D
b100100 R
b1000110001111100000000000 V
1)
#410000
0)
#415000
b10001111110001001111111110110100000000010010100011100011001010000000000000000000000000000000000000000000000000010010001101000001001000110100000000000000000000010010001101000000000000000000 0
b10001111110001001111111110110100000000010010100011100011001010000000000000000000000000000000000000000000000000010010001101000001001000110100000000000000000000010010001101000000000000000000 C
b10001111110001001111111110110100000000010010100011100011001010000000000000000000000000000000000000000000000000010010001101000001001000110100000000000000000000010010001101000000000000000000 i
b10001111110001001111111110110100000000010010100011100011001010000000000000000000000000000000000000000000000000010010001101000001001000110100000000000000000000010010001101000000000000000000 D
b100101 R
b1000110010011100000000000 V
1)
#420000
0)
